Get PGS Catalog Traits — get_traits • quincunx
…
#> # … with 4 variables: efo_id <chr>, parent_efo_id <chr>, is_child <lgl>,
#> #   child_pgs_id <chr>
#> # ℹ Use `colnames()` to see all variable names
#> 
#> Slot "trait_categories":
#> # A tibble: 4 × 4
#>   efo_id      parent_efo_id is_child trait_categories          
#>   <chr>       <chr>         <lgl>    <chr>                     
#> 1 HP_0002140  NA            FALSE    Other trait               
#> 2 EFO_0010555 NA            FALSE    Cardiovascular measurement
#> 3 EFO_0000712 NA            FALSE    Cardiovascular disease    
#> 4 EFO_0000712 NA            FALSE    Neurological disorder     
#> 
#> Slot "trait_synonyms":
#> # A tibble: 54 × 4
#>    efo_id      parent_efo_id is_child trait_synonyms                 
#>    <chr>       <chr>         <lgl>    <chr>                          
#>  1 HP_0002140  NA            FALSE    Ischaemic stroke               
#>  2 EFO_0000712 NA            FALSE    Acute Cerebrovascular Accident 
#>  3 EFO_0000712 NA            FALSE    Acute Cerebrovascular Accidents
#>  4 EFO_0000712 NA            FALSE    Acute Stroke                   
#>  5 EFO_0000712 NA            FALSE    Acute Strokes                  
#>  6 EFO_0000712 NA            FALSE    Apoplexy                       
#>  7 EFO_0000712 NA            FALSE    Apoplexy, Cerebrovascular      
#>  8 EFO_0000712 NA            FALSE    Brain Vascular Accident        
#>  9 EFO_0000712 NA            FALSE    Brain Vascular Accidents       
#> 10 EFO_0000712 NA            FALSE    CEREBROVASCULAR ACCIDENT, (CVA)
#> # … with 44 more rows
#> # ℹ Use `print(n = ...)` to see more rows
…
#> Slot "child_pgs_ids":
#> # A tibble: 0 × 4
#> # … with 4 variables: efo_id <chr>, parent_efo_id <chr>, is_child <lgl>,
#> #   child_pgs_id <chr>
#> # ℹ Use `colnames()` to see all variable names
#> 
#> Slot "trait_categories":
#> # A tibble: 2 × 4
#>   efo_id      parent_efo_id is_child trait_categories      
#>   <chr>       <chr>         <lgl>    <chr>                 
#> 1 EFO_0000712 NA            FALSE    Cardiovascular disease
#> 2 EFO_0000712 NA            FALSE    Neurological disorder 
#> 
#> Slot "trait_synonyms":
#> # A tibble: 53 × 4
#>    efo_id      parent_efo_id is_child trait_synonyms                 
#>    <chr>       <chr>         <lgl>    <chr>                          
#>  1 EFO_0000712 NA            FALSE    Acute Cerebrovascular Accident 
#>  2 EFO_0000712 NA            FALSE    Acute Cerebrovascular Accidents
#>  3 EFO_0000712 NA            FALSE    Acute Stroke                   
#>  4 EFO_0000712 NA            FALSE    Acute Strokes                  
#>  5 EFO_0000712 NA            FALSE    Apoplexy                       
#>  6 EFO_0000712 NA            FALSE    Apoplexy, Cerebrovascular      
#>  7 EFO_0000712 NA            FALSE    Brain Vascular Accident        
#>  8 EFO_0000712 NA            FALSE    Brain Vascular Accidents       
#>  9 EFO_0000712 NA            FALSE    CEREBROVASCULAR ACCIDENT, (CVA)
#> 10 EFO_0000712 NA            FALSE    CVA                            
#> # … with 43 more rows
#> # ℹ Use `print(n = ...)` to see more rows
…
#> An object of class "traits"
#> Slot "traits":
#> # A tibble: 1 × 6
#>   efo_id        parent_efo_id is_child trait         description           url  
#>   <chr>         <chr>         <lgl>    <chr>         <chr>                 <chr>
#> 1 MONDO_0007254 NA            FALSE    breast cancer A primary or metasta… http…
#> 
#> Slot "pgs_ids":
#> # A tibble: 0 × 4
#> # … with 4 variables: efo_id <chr>, parent_efo_id <chr>, is_child <lgl>,
#> #   pgs_id <chr>
#> # ℹ Use `colnames()` to see all variable names
#> 
#> Slot "child_pgs_ids":
#> # A tibble: 112 × 4
#>    efo_id        parent_efo_id is_child child_pgs_id
#>    <chr>         <chr>         <lgl>    <chr>       
#>  1 MONDO_0007254 NA            FALSE    PGS000001   
#>  2 MONDO_0007254 NA            FALSE    PGS000002   
#>  3 MONDO_0007254 NA            FALSE    PGS000003   
#>  4 MONDO_0007254 NA            FALSE    PGS000004   
#>  5 MONDO_0007254 NA            FALSE    PGS000005   
#>  6 MONDO_0007254 NA            FALSE    PGS000006   
#>  7 MONDO_0007254 NA            FALSE    PGS000007   
#>  8 MONDO_0007254 NA            FALSE    PGS000008   
#>  9 MONDO_0007254 NA            FALSE    PGS000009   
#> 10 MONDO_0007254 NA            FALSE    PGS000015   
#> # … with 102 more rows
#> # ℹ Use `print(n = ...)` to see more rows
…
#>   efo_id        parent_efo_id is_child trait                       descr…¹ url  
#>   <chr>         <chr>         <lgl>    <chr>                       <chr>   <chr>
#> 1 MONDO_0007254 NA            FALSE    breast cancer               A prim… http…
#> 2 MONDO_0021115 MONDO_0007254 TRUE     luminal B breast carcinoma  A biol… http…
#> 3 MONDO_0021116 MONDO_0007254 TRUE     luminal A breast carcinoma  A biol… http…
#> 4 EFO_1000649   MONDO_0007254 TRUE     estrogen-receptor positive… A subt… http…
#> 5 EFO_1000650   MONDO_0007254 TRUE     estrogen-receptor negative… A subt… http…
#> 6 EFO_1000294   MONDO_0007254 TRUE     HER2 Positive Breast Carci… A biol… http…
#> 7 EFO_0005537   MONDO_0007254 TRUE     triple-negative breast can… An inv… http…
#> 8 EFO_0000305   MONDO_0007254 TRUE     breast carcinoma            A carc… http…
#> 9 EFO_0009780   MONDO_0007254 TRUE     HER2 negative breast carci… A biol… http…
#> # … with abbreviated variable name ¹​description
#> 
#> Slot "pgs_ids":
#> # A tibble: 112 × 4
#>    efo_id        parent_efo_id is_child pgs_id   
#>    <chr>         <chr>         <lgl>    <chr>    
#>  1 MONDO_0021115 MONDO_0007254 TRUE     PGS000214
#>  2 MONDO_0021116 MONDO_0007254 TRUE     PGS000212
#>  3 EFO_1000649   MONDO_0007254 TRUE     PGS000002
#>  4 EFO_1000649   MONDO_0007254 TRUE     PGS000005
#>  5 EFO_1000649   MONDO_0007254 TRUE     PGS000008
#>  6 EFO_1000649   MONDO_0007254 TRUE     PGS000046
#>  7 EFO_1000649   MONDO_0007254 TRUE     PGS000347
#>  8 EFO_1000649   MONDO_0007254 TRUE     PGS000774
#>  9 EFO_1000650   MONDO_0007254 TRUE     PGS000003
#> 10 EFO_1000650   MONDO_0007254 TRUE     PGS000006
#> # … with 102 more rows
#> # ℹ Use `print(n = ...)` to see more rows
#> 
#> Slot "child_pgs_ids":
#> # A tibble: 131 × 4
#>    efo_id        parent_efo_id is_child child_pgs_id
#>    <chr>         <chr>         <lgl>    <chr>       
#>  1 MONDO_0007254 NA            FALSE    PGS000001   
#>  2 MONDO_0007254 NA            FALSE    PGS000002   
#>  3 MONDO_0007254 NA            FALSE    PGS000003   
#>  4 MONDO_0007254 NA            FALSE    PGS000004   
#>  5 MONDO_0007254 NA            FALSE    PGS000005   
#>  6 MONDO_0007254 NA            FALSE    PGS000006   
#>  7 MONDO_0007254 NA            FALSE    PGS000007   
#>  8 MONDO_0007254 NA            FALSE    PGS000008   
#>  9 MONDO_0007254 NA            FALSE    PGS000009   
#> 10 MONDO_0007254 NA            FALSE    PGS000015   
#> # … with 121 more rows
#> # ℹ Use `print(n = ...)` to see more rows
…
#> # A tibble: 9 × 4
#>   efo_id        parent_efo_id is_child trait_categories
#>   <chr>         <chr>         <lgl>    <chr>           
#> 1 MONDO_0007254 NA            FALSE    Cancer          
#> 2 MONDO_0021115 MONDO_0007254 TRUE     Cancer          
#> 3 MONDO_0021116 MONDO_0007254 TRUE     Cancer          
#> 4 EFO_1000649   MONDO_0007254 TRUE     Cancer          
#> 5 EFO_1000650   MONDO_0007254 TRUE     Cancer          
#> 6 EFO_1000294   MONDO_0007254 TRUE     Cancer          
#> 7 EFO_0005537   MONDO_0007254 TRUE     Cancer          
#> 8 EFO_0000305   MONDO_0007254 TRUE     Cancer          
#> 9 EFO_0009780   MONDO_0007254 TRUE     Cancer          
#> 
#> Slot "trait_synonyms":
#> # A tibble: 40 × 4
#>    efo_id        parent_efo_id is_child trait_synonyms                  
#>    <chr>         <chr>         <lgl>    <chr>                           
#>  1 MONDO_0007254 NA            FALSE    BC                              
#>  2 MONDO_0007254 NA            FALSE    breast cancer                   
#>  3 MONDO_0007254 NA            FALSE    cancer of breast                
#>  4 MONDO_0007254 NA            FALSE    malignant breast neoplasm       
#>  5 MONDO_0007254 NA            FALSE    malignant breast tumor          
#>  6 MONDO_0007254 NA            FALSE    malignant neoplasm of breast    
#>  7 MONDO_0007254 NA            FALSE    malignant neoplasm of the breast
#>  8 MONDO_0007254 NA            FALSE    malignant tumor of breast       
#>  9 MONDO_0007254 NA            FALSE    malignant tumor of the breast   
#> 10 MONDO_0007254 NA            FALSE    mammary cancer                  
#> # … with 30 more rows
#> # ℹ Use `print(n = ...)` to see more rows
#> 
#> Slot "trait_mapped_terms":
#> # A tibble: 38 × 4
#>    efo_id        parent_efo_id is_child trait_mapped_terms
#>    <chr>         <chr>         <lgl>    <chr>             
#>  1 MONDO_0007254 NA            FALSE    DOID:1612         
#>  2 MONDO_0007254 NA            FALSE    ICD10CM:C50       
#>  3 MONDO_0007254 NA            FALSE    ICD9:174.8        
#>  4 MONDO_0007254 NA            FALSE    NCIT:C9335        
#>  5 MONDO_0007254 NA            FALSE    SCTID:254837009   
#>  6 MONDO_0021115 MONDO_0007254 TRUE     NCIT:C53555       
#>  7 MONDO_0021115 MONDO_0007254 TRUE     UMLS:C3642346     
#>  8 MONDO_0021116 MONDO_0007254 TRUE     NCIT:C53554       
#>  9 MONDO_0021116 MONDO_0007254 TRUE     UMLS:C3642345     
#> 10 EFO_1000649   MONDO_0007254 TRUE     DOID:0060075      
#> # … with 28 more rows
#> # ℹ Use `print(n = ...)` to see more rows
…
