Get PGS Catalog Performance Metrics — get_performance_metrics • quincunx
…
#> #   cohorts_additional_description <chr>, and abbreviated variable names
#> #   ¹​sample_id, ²​sample_size, ³​sample_cases, ⁴​sample_controls,
#> #   ⁵​sample_percent_male, ⁶​phenotype_description, ⁷​ancestry_category
#> # ℹ Use `colnames()` to see all variable names
#> 
#> Slot "demographics":
#> # A tibble: 0 × 12
#> # … with 12 variables: ppm_id <chr>, pss_id <chr>, sample_id <int>,
#> #   variable <chr>, estimate_type <chr>, estimate <dbl>, unit <chr>,
#> #   variability_type <chr>, variability <dbl>, interval_type <chr>,
#> #   interval_lower <dbl>, interval_upper <dbl>
#> # ℹ Use `colnames()` to see all variable names
#> 
#> Slot "cohorts":
#> # A tibble: 33 × 5
#>    ppm_id    pss_id    sample_id cohort_symbol cohort_name                      
#>    <chr>     <chr>         <int> <chr>         <chr>                            
#>  1 PPM000001 PSS000001         1 ABCFS         Australian Breast Cancer Family …
#>  2 PPM000001 PSS000001         1 MCCS          Melbourne Collaborative Cohort S…
#>  3 PPM000001 PSS000001         1 HMBCS         Hannover-Minsk Breast Cancer Stu…
#>  4 PPM000001 PSS000001         1 LMBC          Leuven Multidisciplinary Breast …
#>  5 PPM000001 PSS000001         1 MTLGEBCS      Montreal Gene-Environment Breast…
#>  6 PPM000001 PSS000001         1 CGPS          Copenhagen General Population St…
#>  7 PPM000001 PSS000001         1 KBCP          Kuopio Breast Cancer Project     
#>  8 PPM000001 PSS000001         1 OBCS          Oulu Breast Cancer Study         
#>  9 PPM000001 PSS000001         1 CECILE        CECILE Breast Cancer Study       
#> 10 PPM000001 PSS000001         1 BBCC          Bavarian Breast Cancer Cases and…
#> # … with 23 more rows
#> # ℹ Use `print(n = ...)` to see more rows
…
#> #   cohorts_additional_description <chr>, and abbreviated variable names
#> #   ¹​sample_id, ²​sample_size, ³​sample_cases, ⁴​sample_controls,
#> #   ⁵​sample_percent_male, ⁶​phenotype_description, ⁷​ancestry_category
#> # ℹ Use `colnames()` to see all variable names
#> 
#> Slot "demographics":
#> # A tibble: 0 × 12
#> # … with 12 variables: ppm_id <chr>, pss_id <chr>, sample_id <int>,
#> #   variable <chr>, estimate_type <chr>, estimate <dbl>, unit <chr>,
#> #   variability_type <chr>, variability <dbl>, interval_type <chr>,
#> #   interval_lower <dbl>, interval_upper <dbl>
#> # ℹ Use `colnames()` to see all variable names
#> 
#> Slot "cohorts":
#> # A tibble: 218 × 5
#>    ppm_id    pss_id    sample_id cohort_symbol cohort_name                      
#>    <chr>     <chr>         <int> <chr>         <chr>                            
#>  1 PPM000001 PSS000001         1 ABCFS         Australian Breast Cancer Family …
#>  2 PPM000001 PSS000001         1 MCCS          Melbourne Collaborative Cohort S…
#>  3 PPM000001 PSS000001         1 HMBCS         Hannover-Minsk Breast Cancer Stu…
#>  4 PPM000001 PSS000001         1 LMBC          Leuven Multidisciplinary Breast …
#>  5 PPM000001 PSS000001         1 MTLGEBCS      Montreal Gene-Environment Breast…
#>  6 PPM000001 PSS000001         1 CGPS          Copenhagen General Population St…
#>  7 PPM000001 PSS000001         1 KBCP          Kuopio Breast Cancer Project     
#>  8 PPM000001 PSS000001         1 OBCS          Oulu Breast Cancer Study         
#>  9 PPM000001 PSS000001         1 CECILE        CECILE Breast Cancer Study       
#> 10 PPM000001 PSS000001         1 BBCC          Bavarian Breast Cancer Cases and…
#> # … with 208 more rows
#> # ℹ Use `print(n = ...)` to see more rows
…
