Getting PGS Sample Sets • quincunx
…
Sample sets

A sample set is a group of samples used in a polygenic score evaluation.Each sample set is identified in the PGS Catalog by a unique sample set identifier (pss_id). See vignette('cohorts-samples-sample-sets') for more details on the relationship between cohorts, samples, and sample sets.

Getting sample sets

To get information on sample sets you can either search by the associated polygenic score identifiers, or by the sample set identifiers themselves (if you know them beforehand).

By the PGS identifier

# Sample sets used in the evaluation of the PGS000013
(pgs_13_sset <- get_sample_sets(pgs_id = 'PGS000013'))
#> An object of class "sample_sets"
#> Slot "sample_sets":
#> # A tibble: 41 × 1
#>    pss_id   
#>    <chr>    
#>  1 PSS000015
#>  2 PSS000019
#>  3 PSS000020
#>  4 PSS000021
#>  5 PSS000022
#>  6 PSS000219
#>  7 PSS000227
#>  8 PSS000228
#>  9 PSS000229
#> 10 PSS000230
#> # … with 31 more rows
#> 
#> Slot "samples":
#> # A tibble: 45 × 15
#>    pss_id    sample_id stage sample_size sample_cases sample_controls
#>    <chr>         <int> <chr>       <int>        <int>           <int>
#>  1 PSS000015         1 eval       288978         8676          280302
#>  2 PSS000019         1 eval         5762          173            5589
#>  3 PSS000020         1 eval          862          446             416
#>  4 PSS000020         2 eval         2333          937            1396
#>  5 PSS000021         1 eval         1964          974             976
#>  6 PSS000022         1 eval         3309         2492             817
#>  7 PSS000219         1 eval        11010          126           10884
#>  8 PSS000227         1 eval          544           40             504
#>  9 PSS000228         1 eval         1298          336             962
#> 10 PSS000229         1 eval          919          168             751
#> # … with 35 more rows, and 9 more variables: sample_percent_male <dbl>,
#> #   phenotype_description <chr>, ancestry_category <chr>, ancestry <chr>,
#> #   country <chr>, ancestry_additional_description <chr>, study_id <chr>,
#> #   pubmed_id <chr>, cohorts_additional_description <chr>
…
#>  7 PSS000331         1 follow_up_time median             9.2 years <NA>            
#>  8 PSS000332         1 follow_up_time median             9.2 years <NA>            
#>  9 PSS000333         1 follow_up_time median            11.7 years <NA>            
#> 10 PSS000334         1 follow_up_time median            11.7 years <NA>            
#> 11 PSS000335         1 follow_up_time median            10.4 years <NA>            
#> 12 PSS000336         1 follow_up_time median            10.4 years <NA>            
#> 13 PSS000467         1 follow_up_time median            21.3 years <NA>            
#> 14 PSS000468         1 follow_up_time median            23.2 years <NA>            
#> 15 PSS000469         1 follow_up_time median             8.1 years <NA>            
#> 16 PSS001063         1 follow_up_time median            14   years <NA>            
#> # … with 4 more variables: variability <dbl>, interval_type <chr>,
#> #   interval_lower <dbl>, interval_upper <dbl>
#> 
#> Slot "cohorts":
#> # A tibble: 115 × 4
#>    pss_id    sample_id cohort_symbol cohort_name                                
#>    <chr>         <int> <chr>         <chr>                                      
#>  1 PSS000015         1 UKB           UK Biobank                                 
#>  2 PSS000019         1 CARTaGENE     CARTaGENE cohort (CHU Sainte-Justine, Queb…
#>  3 PSS000020         1 MHI           Montreal Heart Institute Biobank           
#>  4 PSS000020         2 MHI           Montreal Heart Institute Biobank           
#>  5 PSS000021         1 MHI           Montreal Heart Institute Biobank           
#>  6 PSS000022         1 MHI           Montreal Heart Institute Biobank           
#>  7 PSS000219         1 CG            Color Genomics                             
#>  8 PSS000227         1 VIRGO         Variation in Recovery: Role of Gender on O…
#>  9 PSS000227         1 MESA          Multi-Ethnic Study of Atherosclerosis      
#> 10 PSS000228         1 VIRGO         Variation in Recovery: Role of Gender on O…
#> # … with 105 more rows
…
