Getting PGS Performance Metrics • quincunx
…
#> 1 PPM000001 PSS000001         1 eval        67054        33673           33381
#> # … with 9 more variables: sample_percent_male <dbl>,
#> #   phenotype_description <chr>, ancestry_category <chr>, ancestry <chr>,
#> #   country <chr>, ancestry_additional_description <chr>, study_id <chr>,
#> #   pubmed_id <chr>, cohorts_additional_description <chr>
#> 
#> Slot "demographics":
#> # A tibble: 0 × 12
#> # … with 12 variables: ppm_id <chr>, pss_id <chr>, sample_id <int>,
#> #   variable <chr>, estimate_type <chr>, estimate <dbl>, unit <chr>,
#> #   variability_type <chr>, variability <dbl>, interval_type <chr>,
#> #   interval_lower <dbl>, interval_upper <dbl>
#> 
#> Slot "cohorts":
#> # A tibble: 33 × 5
#>    ppm_id    pss_id    sample_id cohort_symbol cohort_name                      
#>    <chr>     <chr>         <int> <chr>         <chr>                            
#>  1 PPM000001 PSS000001         1 DEMOKRITOS    Hellenic Cooperative Oncology Gr…
#>  2 PPM000001 PSS000001         1 SBCS          Shanghai Breast Cancer Study     
#>  3 PPM000001 PSS000001         1 SEARCH        Study of Epidemiology and Risk F…
#>  4 PPM000001 PSS000001         1 MCBCS         Mayo Clinic Breast Cancer Study  
#>  5 PPM000001 PSS000001         1 RPCI          Roswell Park Cancer Institute    
#>  6 PPM000001 PSS000001         1 OSU           The Stefanie Spielman Breast Ban…
#>  7 PPM000001 PSS000001         1 GENICA        Gene Environment Interaction and…
#>  8 PPM000001 PSS000001         1 MARIE         Mammary Carcinoma Risk Factor In…
#>  9 PPM000001 PSS000001         1 SKKDKFZS      St_dtisches Klinikum Karlsruhe D…
#> 10 PPM000001 PSS000001         1 BIGGS         Breast Cancer In Galway Genetic …
#> # … with 23 more rows
…
#> 13 PPM002154 PSS001054         1 eval          760          561             199
#> # … with 9 more variables: sample_percent_male <dbl>,
#> #   phenotype_description <chr>, ancestry_category <chr>, ancestry <chr>,
#> #   country <chr>, ancestry_additional_description <chr>, study_id <chr>,
#> #   pubmed_id <chr>, cohorts_additional_description <chr>
#> 
#> Slot "demographics":
#> # A tibble: 0 × 12
#> # … with 12 variables: ppm_id <chr>, pss_id <chr>, sample_id <int>,
#> #   variable <chr>, estimate_type <chr>, estimate <dbl>, unit <chr>,
#> #   variability_type <chr>, variability <dbl>, interval_type <chr>,
#> #   interval_lower <dbl>, interval_upper <dbl>
#> 
#> Slot "cohorts":
#> # A tibble: 218 × 5
#>    ppm_id    pss_id    sample_id cohort_symbol cohort_name                      
#>    <chr>     <chr>         <int> <chr>         <chr>                            
#>  1 PPM000001 PSS000001         1 ABCFS         Australian Breast Cancer Family …
#>  2 PPM000001 PSS000001         1 MCCS          Melbourne Collaborative Cohort S…
#>  3 PPM000001 PSS000001         1 HMBCS         Hannover-Minsk Breast Cancer Stu…
#>  4 PPM000001 PSS000001         1 LMBC          Leuven Multidisciplinary Breast …
#>  5 PPM000001 PSS000001         1 MTLGEBCS      Montreal Gene-Environment Breast…
#>  6 PPM000001 PSS000001         1 CGPS          Copenhagen General Population St…
#>  7 PPM000001 PSS000001         1 KBCP          Kuopio Breast Cancer Project     
#>  8 PPM000001 PSS000001         1 OBCS          Oulu Breast Cancer Study         
#>  9 PPM000001 PSS000001         1 CECILE        CECILE Breast Cancer Study       
#> 10 PPM000001 PSS000001         1 BBCC          Bavarian Breast Cancer Cases and…
#> # … with 208 more rows
…
