PGS Catalog Entity Subsetting • quincunx
…
This returns a new object containing only the data for the scores "PGS000001", "PGS000005" and "PGS000010".

Notice that this operation automatically traverses all tables in the my_scores object and subsets all tables accordingly keeping only those rows corresponding to the first, fifth and tenth scores. For example, compare the table samples from the my_scores object before and after the subsetting.

Before subsetting:

my_scores@samples[1:4]
#> # A tibble: 22 × 4
#>    pgs_id    sample_id stage sample_size
#>    <chr>         <int> <chr>       <int>
#>  1 PGS000001         1 gwas        22627
#>  2 PGS000002         1 gwas        22627
#>  3 PGS000003         1 gwas        22627
#>  4 PGS000004         1 gwas       139274
#>  5 PGS000004         2 dev        158648
#>  6 PGS000004         3 dev         10444
#>  7 PGS000005         1 gwas       139274
#>  8 PGS000005         2 dev         87368
#>  9 PGS000005         3 dev          5159
#> 10 PGS000006         1 gwas       139274
#> # … with 12 more rows
…
