PGS scores by Mavaddat et al. (2018) • quincunx
…
The PGS Catalog provides brief records samples sizes (total, cases and controls):

mavaddat2018_scores@samples[1:6]
#> # A tibble: 21 x 6
#>    pgs_id    sample_id stage     sample_size sample_cases sample_controls
#>    <chr>         <int> <chr>           <int>        <int>           <int>
#>  1 PGS000001         1 discovery       22627           NA              NA
#>  2 PGS000002         1 discovery       22627           NA              NA
#>  3 PGS000003         1 discovery       22627           NA              NA
#>  4 PGS000004         1 discovery      139274           NA              NA
#>  5 PGS000004         2 training       158648        88916           69732
#>  6 PGS000004         3 training        10444         5159            5285
#>  7 PGS000005         1 discovery      139274           NA              NA
#>  8 PGS000005         2 training        87368        55391           31977
#>  9 PGS000005         3 training         5159         4233             926
#> 10 PGS000006         1 discovery      139274           NA              NA
#> # … with 11 more rows

Perhaps, not so surprisingly, the percentage of male participants in the training samples is zero:

mavaddat2018_scores@samples[c('pgs_id', 'sample_id', 'stage', 'sample_percent_male')]
#> # A tibble: 21 x 4
#>    pgs_id    sample_id stage     sample_percent_male
#>    <chr>         <int> <chr>                   <dbl>
#>  1 PGS000001         1 discovery                  NA
#>  2 PGS000002         1 discovery                  NA
#>  3 PGS000003         1 discovery                  NA
#>  4 PGS000004         1 discovery                  NA
#>  5 PGS000004         2 training                    0
#>  6 PGS000004         3 training                    0
#>  7 PGS000005         1 discovery                  NA
#>  8 PGS000005         2 training                    0
#>  9 PGS000005         3 training                    0
#> 10 PGS000006         1 discovery                  NA
#> # … with 11 more rows

Also, information about the trait or disease studied and ancestry information can be accessed:

mavaddat2018_scores@samples[c('pgs_id', 'sample_id', 'stage', 'phenotype_description', 'ancestry')]
#> # A tibble: 21 x 5
#>    pgs_id    sample_id stage     phenotype_description           ancestry
#>    <chr>         <int> <chr>     <chr>                           <chr>   
#>  1 PGS000001         1 discovery <NA>                            European
#>  2 PGS000002         1 discovery <NA>                            European
#>  3 PGS000003         1 discovery <NA>                            European
#>  4 PGS000004         1 discovery <NA>                            European
#>  5 PGS000004         2 training  Invasive breast cancer-affected European
#>  6 PGS000004         3 training  Invasive breast cancer-affected European
#>  7 PGS000005         1 discovery <NA>                            European
#>  8 PGS000005         2 training  ER-positive breast cancer cases European
#>  9 PGS000005         3 training  ER-positive breast cancer cases European
#> 10 PGS000006         1 discovery <NA>                            European
#> # … with 11 more rows
…
Nevertheless, the demographics variables, when present, are participant follow-up time and age. If you doubt that quincunx might not be getting exactly the same info as provided by the PGS Catalog in their website, you can always easily check how metadata for this PGP publication is coming out online:

open_in_pgs_catalog('PGP000002', pgs_catalog_entity = 'pgp')

Cohorts table

In the cohorts table you can check which cohorts associated with which samples. Note that the unique identification of a sample is given by the combination of the values of the first two columns: pgs_id, and sample_id.

mavaddat2018_scores@cohorts
#> # A tibble: 558 x 4
#>    pgs_id    sample_id cohort_symbol cohort_name                                
#>    <chr>         <int> <chr>         <chr>                                      
#>  1 PGS000004         2 ABCFS         Australian Breast Cancer Family Study      
#>  2 PGS000004         2 MCCS          Melbourne Collaborative Cohort Study       
#>  3 PGS000004         2 HMBCS         Hannover-Minsk Breast Cancer Study         
#>  4 PGS000004         2 LMBC          Leuven Multidisciplinary Breast Centre     
#>  5 PGS000004         2 MTLGEBCS      Montreal Gene-Environment Breast Cancer St…
#>  6 PGS000004         2 CGPS          Copenhagen General Population Study        
#>  7 PGS000004         2 KBCP          Kuopio Breast Cancer Project               
#>  8 PGS000004         2 OBCS          Oulu Breast Cancer Study                   
#>  9 PGS000004         2 CECILE        CECILE Breast Cancer Study                 
#> 10 PGS000004         2 BBCC          Bavarian Breast Cancer Cases and Controls  
#> # … with 548 more rows
…
Compared to the author-reported trait (column reported_trait from table scores), the trait description in this table follows the controlled vocabulary of an ontology, i.e., the Experimental Factor Ontology (EFO). This way, traits are described objectively. This is very useful for comparing trait data among different studies where different reported trait descriptions might have been used. For example, if you wanted now to know what other polygenic scores may be deposited in the PGS Catalog that also study breast cancer — namely, breast carcinoma, estrogen-receptor positive breast cancer, and estrogen-receptor negative breast cancer — then you could use their respective EFO identifiers (EFO_0000305, EFO_1000649, and EFO_1000650) with the function get_scores():

scores_bc <- get_scores(efo_id = unique(mavaddat2018_scores@traits[['efo_id']]))
quincunx::n(scores_bc)
#> [1] 96

So there are 96 scores present in the Catalog. Included in this set are the 9 scores originating from Mavaddat et al. (2018). If we wanted to proceed in analysing these other scores without those of Mavaddat’s study, we could use the function setdiff() to remove them from the S4 scores object:

# Use quincunx::setdiff to avoid collision with dplyr::setdiff()
bc_scores_not_mavaddat2018 <- quincunx::setdiff(scores_bc, mavaddat2018_scores)
quincunx::n(bc_scores_not_mavaddat2018)
#> [1] 87
bc_scores_not_mavaddat2018@scores[c('pgs_id', 'reported_trait','n_variants')]
#> # A tibble: 87 x 3
#>    pgs_id    reported_trait n_variants
#>    <chr>     <chr>               <int>
#>  1 PGS000028 Breast cancer          83
#>  2 PGS000029 Breast cancer          76
#>  3 PGS000045 Breast cancer          88
#>  4 PGS000050 Breast cancer          44
#>  5 PGS000052 Breast cancer         161
#>  6 PGS000072 Breast cancer         187
#>  7 PGS000153 Breast cancer          66
#>  8 PGS000015 Breast cancer        5218
#>  9 PGS000317 Breast cancer         180
#> 10 PGS000332 Breast cancer     6390808
#> # … with 77 more rows
…
So we use these PGS identifiers to query the PGS Catalog for performance metrics using the function get_performance_metrics().

mavaddat2018_ppm <- get_performance_metrics(pgs_id = mavaddat2018_scores@scores$pgs_id)
mavaddat2018_ppm@performance_metrics[1:4]
#> # A tibble: 90 x 4
#>    ppm_id    pgs_id   reported_trait                         covariates         
#>    <chr>     <chr>    <chr>                                  <chr>              
#>  1 PPM000001 PGS0000… All breast cancer                      <NA>               
#>  2 PPM000011 PGS0000… Invasive breast cancer                 study, genetic PCs…
#>  3 PPM000114 PGS0000… Breast cancer in BRCA1 mutation carri… Country, birth year
#>  4 PPM000117 PGS0000… Breast cancer in BRCA2 mutation carri… Country, birth year
#>  5 PPM000944 PGS0000… Metachronous contralateral breast can… Country            
#>  6 PPM000945 PGS0000… Invasive metachronous contralateral b… Country            
#>  7 PPM000961 PGS0000… Metachronous contralateral breast can… Country            
#>  8 PPM000962 PGS0000… Invasive metachronous contralateral b… Country            
#>  9 PPM000002 PGS0000… ER-positive breast cancer              <NA>               
#> 10 PPM000012 PGS0000… ER-positive breast cancer              study, genetic PCs…
#> # … with 80 more rows
…
